// Jest Snapshot v1, https://goo.gl/fbAQLP

exports[`<NotFound /> Matches snapshot 1`] = `
<body>
  <div>
    <div
      class="container"
    >
      <strong>
        Page not found!
      </strong>
    </div>
  </div>
</body>
`;
